<svg xmlns="http://www.w3.org/2000/svg" viewBox="0 0 41 56">
  <defs>
    <style>
      .cls-1 {
        font-size: 11px;
        font-family: SegoeUI, Segoe UI;
        letter-spacing: 0.005em;
      }

      .cls-2 {
        fill: #fadb00;
      }

      .cls-3 {
        fill: none;
      }
    </style>
  </defs>
  <g id="Gruppe_345" data-name="Gruppe 345" transform="translate(-167 -121)">
    <text id="Sending_" data-name="Sending…" class="cls-1" transform="translate(167 162)"><tspan x="0.414" y="12">Ich bin:</tspan></text>
    <g id="Ebene_3_Kopie" transform="translate(173.6 119.864)">
      <path id="Körper_color_2_" class="cls-2" d="M25.925,28.362c2.113,4.732-3.631,13.869-5.625,15.8,0,0,3.81-7.262,10.923-8.6,4.4-.833,4.167,1.042,4.167,1.042s-.863-.506-1.4-8.185a16.661,16.661,0,0,1,.982-5.774c1.25-4.018,1.1-3.363-1.161-.03A10.508,10.508,0,0,1,30.9,25.772c-3.006,1.7-4.048.685-4.048.685s-1.161-1.28-1.548-.863c-.238.238-.179,1.012.625,2.768" transform="translate(-13.275 -13.159)"/>
      <g id="Körper_outline_2_" transform="translate(1.4 1.136)">
        <path id="Pfad_733" data-name="Pfad 733" d="M2.739,10.737c-1.1.923-1.339-1.1-1.339-1.1a1.222,1.222,0,0,1,1.19-.714c.506.06,9.435,2.976,9.7,3.185.714.506,1.964,1.31,4.762-.149,6.1-3.214,5.3-9.762,6.7-10.446.685-.417,1.19-.208,1.488.655,0,0-2.113,5.536-3.244,8.274a14.582,14.582,0,0,0-.744,4.643,11.412,11.412,0,0,0,1.607,6.577c.952,1.161,1.845,3.155,3.244,4.435l-.774.714a1.09,1.09,0,0,1-1.012,0c-1.31-.893-1.9-3.065-4.494-3.363-1.071-.119-5.506,1.31-6.488,1.637-1.935.625-1.22.774-5.179,6.22a2.6,2.6,0,0,1-1.429.06c-.506-.119-.982-.446-.863-.565a26.277,26.277,0,0,0,5-7.589c1.19-2.708,1.31-8.6.6-9.226-2.8-2.411-8.72-3.244-8.72-3.244m17.53.3c-1.369,1.875-4.4,4.375-6.9,2.649-.089-.06-.625-.208-.536.089,0,0,.327.982.446,1.429a6.976,6.976,0,0,1,.208,1.548,21.007,21.007,0,0,1-1.1,7.381c4.226-1.964,4.97-2.083,8.393-2.262a14.865,14.865,0,0,1-1.22-6.4c-.03-2.649,1.458-4.464,1.1-5.03" transform="translate(-1.4 -1.254)"/>
        <g id="Gruppe_336" data-name="Gruppe 336" transform="translate(0 0)">
          <path id="Pfad_734" data-name="Pfad 734" class="cls-3" d="M2.739,10.737c-1.1.923-1.339-1.1-1.339-1.1a1.222,1.222,0,0,1,1.19-.714c.506.06,9.435,2.976,9.7,3.185.714.506,1.964,1.31,4.762-.149,6.1-3.214,5.3-9.762,6.7-10.446.685-.417,1.19-.208,1.488.655,0,0-2.113,5.536-3.244,8.274a14.582,14.582,0,0,0-.744,4.643,11.412,11.412,0,0,0,1.607,6.577c.952,1.161,1.845,3.155,3.244,4.435l-.774.714a1.09,1.09,0,0,1-1.012,0c-1.31-.893-1.9-3.065-4.494-3.363-1.071-.119-5.506,1.31-6.488,1.637-1.935.625-1.22.774-5.179,6.22a2.6,2.6,0,0,1-1.429.06c-.506-.119-.982-.446-.863-.565a26.277,26.277,0,0,0,5-7.589c1.19-2.708,1.31-8.6.6-9.226-2.8-2.411-8.72-3.244-8.72-3.244m17.53.3c-1.369,1.875-4.4,4.375-6.9,2.649-.089-.06-.625-.208-.536.089,0,0,.327.982.446,1.429a6.976,6.976,0,0,1,.208,1.548,21.007,21.007,0,0,1-1.1,7.381c4.226-1.964,4.97-2.083,8.393-2.262a14.865,14.865,0,0,1-1.22-6.4c-.03-2.649,1.458-4.464,1.1-5.03" transform="translate(-1.4 -1.254)"/>
          <g id="Gruppe_332" data-name="Gruppe 332" transform="translate(10.506 9.364)">
            <g id="Gruppe_331" data-name="Gruppe 331">
              <g id="Gruppe_330" data-name="Gruppe 330">
                <path id="Pfad_735" data-name="Pfad 735" d="M64.6,32.749l.208-.149h0Z" transform="translate(-56.296 -32.6)"/>
                <path id="Pfad_736" data-name="Pfad 736" d="M64.647,32.789h.06c-.03-.03-.089-.03-.119-.06h-.06l.06-.03c-.03,0-.089.03-.119.03h.06C64.618,32.73,64.677,32.76,64.647,32.789Z" transform="translate(-56.195 -32.67)"/>
                <path id="Pfad_737" data-name="Pfad 737" d="M64.954,33.1c-.06.03.03.089.089.119C64.954,33.16,65.073,33.1,64.954,33.1Z" transform="translate(-56.531 -32.951)"/>
                <path id="Pfad_738" data-name="Pfad 738" d="M61.547,54.447h0C61.518,54.418,61.518,54.447,61.547,54.447Z" transform="translate(-54.137 -47.929)"/>
                <path id="Pfad_739" data-name="Pfad 739" d="M44.676,41.387h.089c-.208-.268-.089-.655-.208-.982l.03.03c-.06-.833-.268-1.607-.327-2.44a.1.1,0,0,0,.06.03c-.03-.03-.089-.089-.089-.119.03,0,.03,0,.06.03.149-.179-.06-.536.06-.625,0-.06-.06-.089-.119-.06a16.258,16.258,0,0,1,.3-2.054c.03-.03.06-.03.119,0a4.339,4.339,0,0,1,.476-1.667c-.06-.03-.089.03-.119-.03-.119.119.06.327-.119.446l-.06-.03c-.089.089.149.089.03.179-.06.03-.06-.03-.089-.03-.06.238-.238.476-.179.774-.149,0-.089.268-.268.327.03.089,0,.149.06.208a7.812,7.812,0,0,0-.417,2.887c.268.446-.03.982.119,1.518h-.03a1.464,1.464,0,0,1,.119.625l.119.149a10,10,0,0,0,.774,3.69c.06.149.089.268.149.387l.3-.476c-.625,0-1.22-.03-1.845.03a4.833,4.833,0,0,0-1.786.476c0-.03-.03-.03.03-.06a9.67,9.67,0,0,0-1.1.327V44.9a25.589,25.589,0,0,0-2.56,1.25c-.357.149-.744.327-1.131.506l.119.119a12.879,12.879,0,0,0,.536-2.173h.06c.089-.923.476-1.786.476-2.708.179-.952-.179-1.964-.06-2.917a1.542,1.542,0,0,0-.149-.952,2.178,2.178,0,0,1-.268-.923,2.253,2.253,0,0,0-.03-.446c0-.06-.03-.149-.03-.208l-.03-.119V36.3h-.03c-.03,0-.03-.03.03.06h.03a.324.324,0,0,1,.149.03.109.109,0,0,1,.089.03c.03,0,0,0,.06.03l.208.089a2.418,2.418,0,0,0,1.7.179,2.872,2.872,0,0,0,1.488-.327,11.55,11.55,0,0,1,1.369-.655c.268-.417.952-.446,1.31-.863l-.06-.03c.268,0,.119-.506.387-.387v.03c.179.03-.089-.417.06-.327l-.03-.06c.06-.119.06.03.149,0,.03-.03-.089-.089,0-.119.238.179.149-.268.387-.089-.03.06.179,0,.119.149.06-.03.179-.208.06-.268-.119-.089-.149-.238-.327-.208l.06.089c-.119-.03-.06,0-.149-.03-.119.119-.238.03-.357.089h0c.06.149-.089.179-.119.208l-.06-.03c-.119-.06.06.3-.06.119a5.544,5.544,0,0,1-.685.774c.03.089-.208.179-.06.238a.49.49,0,0,0-.476.119c0-.03-.03-.03,0-.03-.3-.06-.06.3-.357.179.089.179-.3.119-.268.387l-.089-.089a3.538,3.538,0,0,1-.863.357c-.06.119-.208.149-.327.179a.358.358,0,0,0-.3.208c-.089,0-.179-.03-.3-.03a.641.641,0,0,0-.327.06l.03-.03a1.572,1.572,0,0,1-.387.03.423.423,0,0,0-.179.06.227.227,0,0,0-.149.06c-.03-.238-.119-.208-.208-.3-.179.06-.446-.06-.714-.119.03-.119-.208-.06-.119-.208a.294.294,0,0,0-.179-.06H37.89a.589.589,0,0,0-.3.06c-.03,0-.06.03-.119.06-.03.03-.089.06-.119.089a.426.426,0,0,0-.119.3v.119a.3.3,0,0,0,.03.089l.03.06.06.149c.03.089.06.208.089.3a5.047,5.047,0,0,1,.119.655,4.381,4.381,0,0,1,0,.625h0a2.94,2.94,0,0,0,.446.268s-.03.03-.03,0c.06.149-.089.3-.03.446-.03,0-.03,0-.06-.03.089.119-.119.268,0,.446h-.03l.06.119c-.06,0-.119,0-.119-.06a29.413,29.413,0,0,1-.089,3.958l-.03-.03.06.268c-.03,0-.03-.03-.06-.03-.149.3-.06.655-.149.982-.03,0-.06-.06-.089-.03.089.268-.268.327,0,.506-.03,0-.089,0-.089-.03a5.809,5.809,0,0,1-.417,1.607l-.238.6.625-.238.3-.119c.387-.476,1.071-.506,1.518-.952l.03.06a7.712,7.712,0,0,1,2.173-.863c.327-.06.506-.179.833-.268l.03.06c.476-.357,1.161.03,1.7-.3l-.03.089c.089-.149.357.03.3-.208l.119.06c.357-.327.714.089,1.19-.119l-.03.06a.869.869,0,0,1,.268-.06l-.03.03a.179.179,0,0,1-.03-.119.092.092,0,0,1,.06.03c.03-.446-.357-.744-.476-1.161h.119c-.179-.149-.179-.536-.3-.774h.06l-.089-.119.089-.03A3.437,3.437,0,0,1,44.676,41.387Z" transform="translate(-36.7 -33.232)"/>
                <path id="Pfad_740" data-name="Pfad 740" d="M62.2,48.3Z" transform="translate(-54.611 -43.627)"/>
                <path id="Pfad_741" data-name="Pfad 741" d="M62.6,34.23a.029.029,0,0,0,.03-.03Z" transform="translate(-54.892 -33.724)"/>
              </g>
            </g>
          </g>
          <g id="Gruppe_335" data-name="Gruppe 335" transform="translate(0.145)">
            <g id="Gruppe_334" data-name="Gruppe 334">
              <g id="Gruppe_333" data-name="Gruppe 333">
                <path id="Pfad_742" data-name="Pfad 742" d="M5.7,34.73l.03.03.149-.06Z" transform="translate(-4.566 -24.711)"/>
                <path id="Pfad_743" data-name="Pfad 743" d="M7.3,34.56c-.03-.03,0-.03-.03-.06-.179.06-.357.089-.565.149C6.908,34.827,7.176,34.44,7.3,34.56Z" transform="translate(-5.268 -24.57)"/>
                <path id="Pfad_744" data-name="Pfad 744" d="M9.2,34.787a.342.342,0,0,0,.357-.03C9.463,34.817,9.165,34.668,9.2,34.787Z" transform="translate(-7.019 -24.739)"/>
                <path id="Pfad_745" data-name="Pfad 745" d="M31.6,75.76c0-.03,0-.03.03-.06A.092.092,0,0,0,31.6,75.76Z" transform="translate(-22.757 -53.508)"/>
                <path id="Pfad_746" data-name="Pfad 746" d="M8.707,27.7l.06.089c.387-.833,1.042-1.577,1.429-2.44v.06a15.71,15.71,0,0,0,.8-1.577l.357-.8a6.826,6.826,0,0,0,.268-.833,18.616,18.616,0,0,0,.506-3.423c0,.03.03.06.03.089a1.508,1.508,0,0,1-.06-.387c.03-.03.03.03.03.089.208-.476,0-1.458.119-1.786-.03-.149-.089-.208-.119-.119a11.4,11.4,0,0,0-.089-1.4,4.678,4.678,0,0,0-.119-.685c-.03-.119-.06-.208-.089-.327a.873.873,0,0,0-.119-.238.555.555,0,0,0-.119-.089l-.149-.089-.3-.208c-.208-.119-.417-.238-.6-.357a5.948,5.948,0,0,0-.625-.3c-.208-.089-.446-.179-.655-.268-.06-.06-.06-.089-.03-.149-1.548-.417-3.1-.952-4.7-1.339-.06.06.149.089-.03.119.506.179.982.06,1.4.3l-.06.03c.327.119.119-.119.446.03.119.089-.06.06,0,.089.714.179,1.429.446,2.113.565.119.179.714.3.923.536.179.03.357.119.446.06a10.931,10.931,0,0,1,1.577,1.012l.179.149h0c.03-.03-.06.089.089-.089h0l-.06.06h0c0,.03.03.03.03.06a1.188,1.188,0,0,1,.119.387,8.535,8.535,0,0,1,.149.923,19.319,19.319,0,0,1-.089,3.929,5.058,5.058,0,0,1-.268,1.964c-.089.327-.208.685-.327,1.012a2.3,2.3,0,0,1-.208.476c-.06.179-.149.327-.208.506h-.03a6.3,6.3,0,0,1-.744,1.577l-.149.476a28.757,28.757,0,0,1-2.56,3.661c-.238.3-.476.565-.714.833a2.379,2.379,0,0,1-.387.387l-.089.089-.06.06-.03.03c-.03.06-.06.089-.089.149v.149c0,.03,0,.03.03.06l.03.03a.411.411,0,0,0,.089.119.523.523,0,0,0,.149.119,1.483,1.483,0,0,0,.565.3,2.342,2.342,0,0,0,.6.119,2.2,2.2,0,0,0,.625,0,5.7,5.7,0,0,0,.625-.119l.06-.03.06-.06.982-1.31q.893-1.205,1.7-2.411l.8-1.161a2.85,2.85,0,0,1,.863-.833,10.109,10.109,0,0,1,1.25-.446l1.339-.446c.893-.3,1.786-.6,2.708-.923,0,.03.03.03-.06.06a7.843,7.843,0,0,1,1.548-.3H20.2l.357.06a6.464,6.464,0,0,1,.714.208v.03a3.618,3.618,0,0,1,1.131.655,7.779,7.779,0,0,1,.952,1.012,10.67,10.67,0,0,0,.952,1.071c.089.089.208.149.3.238a.711.711,0,0,0,.417.149,1.5,1.5,0,0,0,.8-.149h.03l.03-.03c.268-.238.506-.506.744-.744l.119-.119-.119-.119a9.588,9.588,0,0,1-.952-.952c-.387-.506-.744-1.071-1.1-1.637s-.744-1.19-1.19-1.786v.03a17,17,0,0,1-1.131-2.589,8.935,8.935,0,0,1-.506-2.8h.06c-.03-.327-.03-.655-.03-.982a5.088,5.088,0,0,1,0-.952c.06-.655.149-1.28.268-1.9a11.671,11.671,0,0,1,.536-1.815c.238-.6.476-1.19.714-1.815.923-2.083,1.548-4.4,2.381-6.577v.03a1.511,1.511,0,0,0-.268-.536.73.73,0,0,0-.506-.327,1.128,1.128,0,0,0-.744.149h0a.826.826,0,0,0-.417.476,3.5,3.5,0,0,0-.208.6c-.119.387-.179.8-.268,1.22a7.954,7.954,0,0,1-.655,2.2,17.237,17.237,0,0,1-2.56,3.988,12.749,12.749,0,0,1-1.756,1.577,11.23,11.23,0,0,1-2.083,1.22,5.331,5.331,0,0,1-1.815.208,3.82,3.82,0,0,1-1.7-.655h0c-.03-.03-.089-.03-.119-.06l-.149-.06a1.244,1.244,0,0,1-.3-.119l-.625-.208c-.417-.149-.833-.268-1.25-.417a24.147,24.147,0,0,1-2.44-.923c-1.369-.238-2.679-1.1-4.137-1.488l.03.089A1.04,1.04,0,0,0,3.321,8.8a.749.749,0,0,0-.446.03c-.3.089-.446.268-.685.268l.03-.06c-.208.06-.268.387-.238.565v-.03a.262.262,0,0,1,.06.238l-.119-.03c.119.327-.06.06-.03.327.06.089.119,0,.179.179-.119.089-.03.268.149.417s.357.119.417.268c-.119.03-.03.03.03.06.03.03.06.03.03.06a.13.13,0,0,1-.089.03c-.03.03-.089.03-.208.03a.773.773,0,0,0,.6-.119c.179-.119.268-.238.208-.268-.06-.149.03-.387-.3-.268v.119c-.149-.03-.089,0-.179-.06-.179.089-.238,0-.268-.06a.109.109,0,0,0-.03-.089.225.225,0,0,0-.03-.119h0c-.208-.03-.238-.357-.238-.506L2.19,9.7c.06-.06-.06-.179-.119-.268l-.03.208c-.03-.06,0-.089.06,0a1.409,1.409,0,0,1,.327-.387A.662.662,0,0,1,2.9,9.161c.089.03.238.06.357.089l.387.119c.268.089.506.149.774.238.179-.03.774.238.6.03a3.651,3.651,0,0,0,1.22.625c-.03,0-.03.03-.089,0,.476.387.714,0,1.131.446.149-.179.893.357,1.25.238.06.06.06.119.03.149.893.3,1.875.714,2.649.982a4.757,4.757,0,0,1,.625.149,3.087,3.087,0,0,1,.3.119l.149.06h.03l.03.03a1.916,1.916,0,0,0,.952.417,3.361,3.361,0,0,0,1.012.327,2.668,2.668,0,0,0,1.19-.089l-.06.03a4.6,4.6,0,0,0,2.2-1.012c.327.089.6-.119.952-.268.208-.179.536-.446.863-.744.179-.149.327-.3.506-.476a3.426,3.426,0,0,0,.417-.506c.179,0,.417-.536.565-.476a19.408,19.408,0,0,0,1.7-3.333c.476-1.19.863-2.47,1.28-3.512v.03a5.42,5.42,0,0,1-.03-.982c.03-.03.06,0,.03.06a.406.406,0,0,1,.327-.3h.03c.179-.06.387-.089.506-.119,0,.03,0,.03-.03.06.268-.089.3.238.565.6l-.03.03h0V1.9l-.06.3c-.06-.03-.119-.06-.03-.208-.714,1.726-1.339,3.482-1.964,5.268l-.982,2.679a13.5,13.5,0,0,0-.685,2.827l-.03-.149v.744c-.03,0-.03-.03-.03-.089a5.92,5.92,0,0,0-.089,1.458l.03.357c0,.119.03.238.03.357a5.248,5.248,0,0,1,0,.685c-.03,0-.089-.149-.089,0,.149.685-.119,1.161.238,1.458,0,.03-.06.06-.089,0A17.281,17.281,0,0,0,23.082,21.6v.03l.03.03c.3.387.565.8.833,1.22a30.6,30.6,0,0,0,2.53,3.125V25.8a8.477,8.477,0,0,0-.685.774l-.03-.03-.03.03.03-.03a1.015,1.015,0,0,1-.714.149.709.709,0,0,1-.327-.179,1.279,1.279,0,0,1-.3-.268,14.74,14.74,0,0,1-1.071-1.25,7.322,7.322,0,0,0-1.19-1.161,3.865,3.865,0,0,0-1.548-.625,1.622,1.622,0,0,0-.655-.03c-.208.03-.387.06-.6.089-.387.089-.744.179-1.19.3h-.179c-1.429.625-3.214.685-4.673,1.458l.089-.119c-.089.119-.327.179-.506.268s-.327.208-.208.268c-.089.03-.179.089-.268.119a8.433,8.433,0,0,1-.893,1.31,8.278,8.278,0,0,0-.982,1.458v-.119a2.715,2.715,0,0,1-.565.863c.03-.03,0-.03.03-.119A12.328,12.328,0,0,0,8.5,31.066l.03-.03a1.948,1.948,0,0,1-.923.149.411.411,0,0,0,.119-.089,1.53,1.53,0,0,1-1.042-.179,1.4,1.4,0,0,1-.268-.179l-.089-.089v-.03h0a.029.029,0,0,1,.03-.03,5.714,5.714,0,0,0,.417-.446v.06c.06-.119.149-.208.208-.327l.089.06A21.587,21.587,0,0,0,8.707,27.7Z" transform="translate(-1.889 -1.136)"/>
                <path id="Pfad_747" data-name="Pfad 747" d="M36.3,59.7Z" transform="translate(-26.059 -42.27)"/>
                <path id="Pfad_748" data-name="Pfad 748" d="M3.7,31.8c0,.03.03.06.03.089A.109.109,0,0,0,3.7,31.8Z" transform="translate(-3.161 -22.674)"/>
              </g>
            </g>
          </g>
        </g>
      </g>
      <path id="Kopf_color_2_" class="cls-2" d="M37.691,15.46c-1.964.774-3.72,2.143-2.262,5.387a3.3,3.3,0,0,0,4.7,1.786c1.964-1.131,3.036-2.619,2.024-4.911-.923-2.113-2.5-3.036-4.464-2.262" transform="translate(-23.523 -9.871)"/>
      <g id="Kopf_outline_2_" transform="translate(10.679 4.387)">
        <path id="Pfad_749" data-name="Pfad 749" d="M37.136,22.194a4.364,4.364,0,0,1-3.869-2.708h0a4.176,4.176,0,0,1-.6-2.47,3.885,3.885,0,0,1,2.649-3.78l.655-.208h0a4.557,4.557,0,0,1,1.607-.327h0a4.362,4.362,0,0,1,3.9,3.006h0a4.924,4.924,0,0,1,.446,1.964h0c0,1.845-1.28,3.125-2.827,3.988h0a4.23,4.23,0,0,1-1.964.536Zm-.685-7.827a3.138,3.138,0,0,0-2.262,2.5,2.708,2.708,0,0,0,.446,2.321,3.47,3.47,0,0,0,2.53,1.548c.655-.089.893.357,2.411-.923a4.506,4.506,0,0,0,.863-1.786,3.252,3.252,0,0,0-2.113-3.69A4.079,4.079,0,0,0,36.451,14.367Z" transform="translate(-32.635 -12.509)"/>
        <g id="Gruppe_343" data-name="Gruppe 343">
          <path id="Pfad_750" data-name="Pfad 750" class="cls-3" d="M37.136,22.194a4.364,4.364,0,0,1-3.869-2.708h0a4.176,4.176,0,0,1-.6-2.47,3.885,3.885,0,0,1,2.649-3.78l.655-.208h0a4.557,4.557,0,0,1,1.607-.327h0a4.362,4.362,0,0,1,3.9,3.006h0a4.924,4.924,0,0,1,.446,1.964h0c0,1.845-1.28,3.125-2.827,3.988h0a4.23,4.23,0,0,1-1.964.536Zm-.685-7.827a3.138,3.138,0,0,0-2.262,2.5,2.708,2.708,0,0,0,.446,2.321,3.47,3.47,0,0,0,2.53,1.548c.655-.089.893.357,2.411-.923a4.506,4.506,0,0,0,.863-1.786,3.252,3.252,0,0,0-2.113-3.69A4.079,4.079,0,0,0,36.451,14.367Z" transform="translate(-32.635 -12.509)"/>
          <g id="Gruppe_339" data-name="Gruppe 339" transform="translate(0.899 1.471)">
            <g id="Gruppe_338" data-name="Gruppe 338">
              <g id="Gruppe_337" data-name="Gruppe 337">
                <path id="Pfad_751" data-name="Pfad 751" d="M45.8,19.86v0Z" transform="translate(-42.764 -18.967)"/>
                <path id="Pfad_752" data-name="Pfad 752" d="M46.06,19.16a.092.092,0,0,0-.03-.06l-.03.268C46.06,19.487,46,19.07,46.06,19.16Z" transform="translate(-42.905 -18.475)"/>
                <path id="Pfad_753" data-name="Pfad 753" d="M46.28,19.189c.03.06.03-.06.03-.089C46.31,19.16,46.251,19.07,46.28,19.189Z" transform="translate(-43.096 -18.475)"/>
                <path id="Pfad_754" data-name="Pfad 754" d="M55.3,21.8Z" transform="translate(-49.437 -20.371)"/>
                <path id="Pfad_755" data-name="Pfad 755" d="M42.267,18.845l.089-.03a.265.265,0,0,1-.179-.179.38.38,0,0,0-.149-.208h.03a2.008,2.008,0,0,0-1.042-.685l.03-.03c-.03.03-.089.06-.089.03a.029.029,0,0,1,.03-.03c0-.179-.268-.06-.268-.179-.03,0-.06.06-.089.089a1.247,1.247,0,0,0-.446-.119,1.48,1.48,0,0,0-.476.089c-.03-.03-.03-.06-.03-.119-.268.238-.536.179-.833.179,0,.06.03.06.03.119.089.06.149-.179.238-.089v.06c.06.03,0-.149.06-.089.03.06,0,.089.03.089.119-.03.238,0,.357-.149.03.119.119,0,.179.119.03-.06.06-.03.06-.119a1.116,1.116,0,0,0,.3.03.179.179,0,0,1,.119.03h.06l.089.03a2.148,2.148,0,0,1,.6.268c.327-.089.327.3.565.417l-.03.03a.3.3,0,0,1,.238.179h.149c.089.3.208.565.3.833a2.748,2.748,0,0,1,.089.863,2.256,2.256,0,0,1-.089.476c-.03.149-.089.3-.119.446a2.824,2.824,0,0,0-.179.923.029.029,0,0,1-.03-.03,2.332,2.332,0,0,1-.3.446l-.03-.03a.227.227,0,0,1-.06.149l.03-.03c-.268.357-.685.476-.923.833a1.515,1.515,0,0,1-.625.179,5.977,5.977,0,0,0-.714.03h0a1.434,1.434,0,0,1-.357,0v-.06a.828.828,0,0,1-.625-.238,2.228,2.228,0,0,0-.536-.387,1.636,1.636,0,0,0-.506-.387,1.447,1.447,0,0,1-.506-.446h0A.65.65,0,0,1,36.612,22c0-.179-.119-.268-.268-.417-.119-.119-.238-.3-.149-.446a1.388,1.388,0,0,0,.149-.655,5.345,5.345,0,0,0-.06-.655h0a2.3,2.3,0,0,1-.06-.446,6.039,6.039,0,0,0,.327-.774c.119-.238.268-.506.565-.565a.3.3,0,0,1,.327-.208,1.717,1.717,0,0,0,.417-.089l-.03-.06c.179.119.06-.327.238-.119v.03c.089.119-.03-.357.06-.208l-.03-.06c.06-.03.03.06.089.089,0,0-.03-.119,0-.089.089.268.119-.119.238.208-.03,0,.089.119.03.179.03.03.119-.03.06-.149a.844.844,0,0,0-.119-.387V17.3a.424.424,0,0,1-.06-.119c-.089,0-.149-.119-.238-.179h0c0,.149-.089.089-.119.089l-.03-.06c-.06-.119,0,.268-.06.06-.149.119-.357.208-.536.327.03.089-.149.089,0,.179a.265.265,0,0,0-.357,0s-.03-.03,0-.03c-.238-.089.03.238-.238.119.119.149-.179.089-.06.3-.03-.03-.089-.03-.089-.06a2.75,2.75,0,0,0-.417.417c.06.208-.238.268-.089.476a.379.379,0,0,0-.208.357l-.03-.03c-.03.149-.089.357.06.476a.387.387,0,0,0-.268.089v-.06a.029.029,0,0,1-.03.03c.089.149,0,.327.089.506-.119.03.03.119-.119.119a3.268,3.268,0,0,1,.238,1.548h0a2.232,2.232,0,0,0,.446,0s-.03.03-.03,0c.06.06-.03.208.06.268-.03.03-.03.03-.06.03.089.03.06.149.119.208l-.03-.06c.03.03.03.03.06.03l-.03.03h.089c-.03.03-.119.06-.119.03a4.394,4.394,0,0,0,1.815,1.28l-.06.03.179-.03a.029.029,0,0,1-.03.03c.149.149.387.06.565.119,0,.03-.03.06-.03.089.149-.119.208.208.3-.089V23.9a.179.179,0,0,0,.119-.03h.03a.883.883,0,0,1,.417-.06,3.214,3.214,0,0,0,.536,0,1.21,1.21,0,0,1,.417-.3.556.556,0,0,0,.357-.327l.03.06a1.632,1.632,0,0,1,.655-.536h0a1.636,1.636,0,0,0,.208-.268c.119-.119.119-.268.208-.417l.06.03a.458.458,0,0,1,.179-.417.369.369,0,0,0,.119-.446l.089.06c-.119-.089.089-.149-.149-.208l.089-.03a.2.2,0,0,1-.03-.3c.06-.089.149-.179.06-.3l.06.03c-.03-.06-.089-.149-.03-.179a.029.029,0,0,1,.03.03c.238-.208-.03-.446-.06-.655h.119c-.149-.089-.06-.3-.179-.417h.06l-.089-.06.089-.03a.6.6,0,0,0-.119-.238C42.356,18.994,42.3,18.935,42.267,18.845Z" transform="translate(-35.6 -17)"/>
                <path id="Pfad_756" data-name="Pfad 756" d="M53.6,19.3Z" transform="translate(-48.243 -18.615)"/>
                <path id="Pfad_757" data-name="Pfad 757" d="M44.2,17.069h.03C44.2,17.039,44.2,17.069,44.2,17.069Z" transform="translate(-41.64 -17.039)"/>
              </g>
            </g>
          </g>
          <g id="Gruppe_342" data-name="Gruppe 342">
            <g id="Gruppe_341" data-name="Gruppe 341">
              <g id="Gruppe_340" data-name="Gruppe 340">
                <path id="Pfad_758" data-name="Pfad 758" d="M47.7,46.26l.03.03.03-.089Z" transform="translate(-43.199 -36.039)"/>
                <path id="Pfad_759" data-name="Pfad 759" d="M48.179,45.56a.092.092,0,0,0-.03-.06,1.661,1.661,0,0,1-.149.238C48.089,45.887,48.149,45.47,48.179,45.56Z" transform="translate(-43.41 -35.547)"/>
                <path id="Pfad_760" data-name="Pfad 760" d="M48.786,45.589c.06.06.089-.06.089-.089C48.845,45.56,48.756,45.47,48.786,45.589Z" transform="translate(-43.958 -35.547)"/>
                <path id="Pfad_761" data-name="Pfad 761" d="M62.6,36.9Z" transform="translate(-53.665 -29.507)"/>
                <path id="Pfad_762" data-name="Pfad 762" d="M41.692,18.113l-.06-.03c.06.119,0,.238-.03.357a1.6,1.6,0,0,0-.149.327l-.03-.03a9.194,9.194,0,0,1-.952,1.518V20.2c0,.03,0,.119-.03.119s-.03-.03-.03-.06c-.208-.03-.238.327-.387.268-.03.03,0,.089.06.119-.387.327-.774.625-1.22.952-.03,0-.06-.03-.06-.089a1.488,1.488,0,0,1-1.28.476c0,.06.06.06.03.119.179.06.268-.179.417-.119v.06c.119,0,0-.149.119-.089.06.03,0,.089.03.089.208-.089.446-.089.565-.3.089.119.208-.089.327,0,.03-.06.089-.089.06-.179a5.919,5.919,0,0,0,1.726-1.28.714.714,0,0,1,.327-.446,1.112,1.112,0,0,0,.387-.446h.03a1.174,1.174,0,0,1,.179-.446l-.03-.179a2.452,2.452,0,0,0,.476-1.369,7.823,7.823,0,0,0-.119-1.458,7.264,7.264,0,0,0-.476-1.488,2.79,2.79,0,0,0-1.042-1.161c.03-.03.03-.03.06-.03-.238-.179-.387-.446-.655-.565l.03-.03c-.357-.119-.655-.327-1.012-.446a1.681,1.681,0,0,0-1.071-.119,3.744,3.744,0,0,0-1.28.119,5.366,5.366,0,0,0-.625.238c-.208.089-.387.149-.6.238l-.03-.06c-.3.179-.625.268-.923.417a1.935,1.935,0,0,0-.833.625,1.948,1.948,0,0,0-.565.952,5.993,5.993,0,0,1-.3,1.042c-.179.179-.119.476-.06.714a.9.9,0,0,1,0,.685,1.824,1.824,0,0,0,.565,1.935h0a3.258,3.258,0,0,0,.3.327,2.01,2.01,0,0,0,.685.893,6.542,6.542,0,0,1,.8.774.818.818,0,0,1,.476.3.94.94,0,0,0,.506.327v-.06c.089.238.357-.179.387.119h-.03c.06.149.238-.3.238-.119l.03-.06c.089,0,0,.089.06.119.03,0,.03-.119.06-.089,0,.3.208-.06.208.268-.06,0,.089.119-.03.179.03.03.208.03.179-.119,0-.149.06-.268-.03-.387l-.03.119c-.03-.119-.03-.06-.03-.149-.119-.03-.119-.179-.208-.238h0c-.06.119-.119.03-.179,0v-.06c0-.119-.149.238-.089.03a1.544,1.544,0,0,1-.714-.149c-.06.06-.179-.089-.179.089a.346.346,0,0,0-.208-.327l.03-.03c0-.268-.238.119-.208-.208-.119.149-.149-.179-.327-.03A.155.155,0,0,1,35,20.4a3.12,3.12,0,0,1-.417-.506c-.238,0-.208-.327-.476-.3-.03-.119-.06-.327-.208-.417h.03c-.119-.149-.208-.327-.417-.387l.089-.089-.03-.06a.276.276,0,0,0,.03-.208c-.149-.06-.238-.268-.387-.417.089-.06-.089-.119.06-.179a1.33,1.33,0,0,1-.357-.8,1.157,1.157,0,0,1,.06-.446,1.043,1.043,0,0,1,.179-.417h0c-.089-.089-.268-.179-.357-.268h.03c0-.119.149-.179.149-.3.03,0,.03,0,.06.03-.06-.119.149-.179.089-.3h.03l-.03-.089c.06.03.119.03.089.06a5.962,5.962,0,0,1,.506-1.19,2.518,2.518,0,0,1,.982-.952v.06l.119-.179v.06c.238-.03.387-.268.625-.3,0,.03,0,.089.03.089.119-.179.327.089.327-.208a.3.3,0,0,1,.03.089c.119-.06.208-.119.327-.179a1.451,1.451,0,0,1,.327-.119,2.7,2.7,0,0,1,.685-.089.856.856,0,0,1,.6-.149,2.409,2.409,0,0,0,.655,0l-.03.06a1.336,1.336,0,0,1,.8.238c.238.149.446.357.685.506.149.179.327.238.476.417l-.06.06c.238.06.327.268.387.476.089.208.149.417.357.506l-.089.03c.149,0,.06.238.268.119l-.03.089c.417.119.089.536.387.774h-.06c.06.06.149.179.119.238h-.06c-.119.327.179.565.208.893l-.119-.03c.149.119.06.417.089.6h-.06l.06.089h-.089A2.506,2.506,0,0,1,41.692,18.113Z" transform="translate(-32.578 -12.059)"/>
                <path id="Pfad_763" data-name="Pfad 763" d="M58.9,39.7Z" transform="translate(-51.066 -31.474)"/>
                <path id="Pfad_764" data-name="Pfad 764" d="M46.8,43Z" transform="translate(-42.567 -33.791)"/>
              </g>
            </g>
          </g>
        </g>
      </g>
    </g>
  </g>
</svg>
